%YAML 1.1
%TAG !u! tag:unity3d.com,2011:
--- !u!114 &11400000
MonoBehaviour:
  m_ObjectHideFlags: 0
  m_CorrespondingSourceObject: {fileID: 0}
  m_PrefabInstance: {fileID: 0}
  m_PrefabAsset: {fileID: 0}
  m_GameObject: {fileID: 0}
  m_Enabled: 1
  m_EditorHideFlags: 0
  m_Script: {fileID: 11500000, guid: 13b75c95f34a00d4e8c04f76b73312e6, type: 3}
  m_Name: short grass
  m_EditorClassIdentifier: 
  m_AnimatedSprites:
  - {fileID: -5884959436707817165, guid: f08bf38b0f02528479661c36e54288ff, type: 3}
  - {fileID: -5206754869207837876, guid: f08bf38b0f02528479661c36e54288ff, type: 3}
  - {fileID: 6527841254944268153, guid: f08bf38b0f02528479661c36e54288ff, type: 3}
  - {fileID: -6147125736566286671, guid: f08bf38b0f02528479661c36e54288ff, type: 3}
  m_MinSpeed: 2
  m_MaxSpeed: 5
  m_AnimationStartTime: 0
  m_AnimationStartFrame: 0
  m_TileColliderType: 0
