%YAML 1.1
%TAG !u! tag:unity3d.com,2011:
--- !u!1 &4782072450233878106
GameObject:
  m_ObjectHideFlags: 0
  m_CorrespondingSourceObject: {fileID: 0}
  m_PrefabInstance: {fileID: 0}
  m_PrefabAsset: {fileID: 0}
  serializedVersion: 6
  m_Component:
  - component: {fileID: 7494899930634850165}
  - component: {fileID: 5786778954829341961}
  - component: {fileID: 5576551783210133043}
  m_Layer: 0
  m_Name: Layer1
  m_TagString: Untagged
  m_Icon: {fileID: 0}
  m_NavMeshLayer: 0
  m_StaticEditorFlags: 0
  m_IsActive: 1
--- !u!4 &7494899930634850165
Transform:
  m_ObjectHideFlags: 0
  m_CorrespondingSourceObject: {fileID: 0}
  m_PrefabInstance: {fileID: 0}
  m_PrefabAsset: {fileID: 0}
  m_GameObject: {fileID: 4782072450233878106}
  m_LocalRotation: {x: -0, y: -0, z: -0, w: 1}
  m_LocalPosition: {x: 0, y: 0, z: 0}
  m_LocalScale: {x: 1, y: 1, z: 1}
  m_Children: []
  m_Father: {fileID: 7654808038225235394}
  m_RootOrder: 0
  m_LocalEulerAnglesHint: {x: 0, y: 0, z: 0}
--- !u!1839735485 &5786778954829341961
Tilemap:
  m_ObjectHideFlags: 0
  m_CorrespondingSourceObject: {fileID: 0}
  m_PrefabInstance: {fileID: 0}
  m_PrefabAsset: {fileID: 0}
  m_GameObject: {fileID: 4782072450233878106}
  m_Enabled: 1
  m_Tiles:
  - first: {x: 0, y: -7, z: 0}
    second:
      serializedVersion: 2
      m_TileIndex: 48
      m_TileSpriteIndex: 48
      m_TileMatrixIndex: 0
      m_TileColorIndex: 0
      m_TileObjectToInstantiateIndex: 65535
      dummyAlignment: 0
      m_AllTileFlags: 1073741825
  - first: {x: 1, y: -7, z: 0}
    second:
      serializedVersion: 2
      m_TileIndex: 49
      m_TileSpriteIndex: 49
      m_TileMatrixIndex: 0
      m_TileColorIndex: 0
      m_TileObjectToInstantiateIndex: 65535
      dummyAlignment: 0
      m_AllTileFlags: 1073741825
  - first: {x: 3, y: -7, z: 0}
    second:
      serializedVersion: 2
      m_TileIndex: 52
      m_TileSpriteIndex: 42
      m_TileMatrixIndex: 0
      m_TileColorIndex: 0
      m_TileObjectToInstantiateIndex: 65535
      dummyAlignment: 0
      m_AllTileFlags: 0
  - first: {x: 5, y: -7, z: 0}
    second:
      serializedVersion: 2
      m_TileIndex: 51
      m_TileSpriteIndex: 43
      m_TileMatrixIndex: 0
      m_TileColorIndex: 0
      m_TileObjectToInstantiateIndex: 65535
      dummyAlignment: 0
      m_AllTileFlags: 0
  - first: {x: 7, y: -7, z: 0}
    second:
      serializedVersion: 2
      m_TileIndex: 50
      m_TileSpriteIndex: 44
      m_TileMatrixIndex: 0
      m_TileColorIndex: 0
      m_TileObjectToInstantiateIndex: 65535
      dummyAlignment: 0
      m_AllTileFlags: 0
  - first: {x: -1, y: -6, z: 0}
    second:
      serializedVersion: 2
      m_TileIndex: 45
      m_TileSpriteIndex: 45
      m_TileMatrixIndex: 0
      m_TileColorIndex: 0
      m_TileObjectToInstantiateIndex: 65535
      dummyAlignment: 0
      m_AllTileFlags: 1073741825
  - first: {x: 0, y: -6, z: 0}
    second:
      serializedVersion: 2
      m_TileIndex: 46
      m_TileSpriteIndex: 46
      m_TileMatrixIndex: 0
      m_TileColorIndex: 0
      m_TileObjectToInstantiateIndex: 65535
      dummyAlignment: 0
      m_AllTileFlags: 1073741825
  - first: {x: 1, y: -6, z: 0}
    second:
      serializedVersion: 2
      m_TileIndex: 47
      m_TileSpriteIndex: 47
      m_TileMatrixIndex: 0
      m_TileColorIndex: 0
      m_TileObjectToInstantiateIndex: 65535
      dummyAlignment: 0
      m_AllTileFlags: 1073741825
  - first: {x: -1, y: -5, z: 0}
    second:
      serializedVersion: 2
      m_TileIndex: 39
      m_TileSpriteIndex: 39
      m_TileMatrixIndex: 0
      m_TileColorIndex: 0
      m_TileObjectToInstantiateIndex: 65535
      dummyAlignment: 0
      m_AllTileFlags: 1073741825
  - first: {x: 0, y: -5, z: 0}
    second:
      serializedVersion: 2
      m_TileIndex: 40
      m_TileSpriteIndex: 40
      m_TileMatrixIndex: 0
      m_TileColorIndex: 0
      m_TileObjectToInstantiateIndex: 65535
      dummyAlignment: 0
      m_AllTileFlags: 1073741825
  - first: {x: 1, y: -5, z: 0}
    second:
      serializedVersion: 2
      m_TileIndex: 41
      m_TileSpriteIndex: 41
      m_TileMatrixIndex: 0
      m_TileColorIndex: 0
      m_TileObjectToInstantiateIndex: 65535
      dummyAlignment: 0
      m_AllTileFlags: 1073741825
  - first: {x: 3, y: -5, z: 0}
    second:
      serializedVersion: 2
      m_TileIndex: 42
      m_TileSpriteIndex: 42
      m_TileMatrixIndex: 0
      m_TileColorIndex: 0
      m_TileObjectToInstantiateIndex: 65535
      dummyAlignment: 0
      m_AllTileFlags: 1073741825
  - first: {x: 5, y: -5, z: 0}
    second:
      serializedVersion: 2
      m_TileIndex: 43
      m_TileSpriteIndex: 43
      m_TileMatrixIndex: 0
      m_TileColorIndex: 0
      m_TileObjectToInstantiateIndex: 65535
      dummyAlignment: 0
      m_AllTileFlags: 1073741825
  - first: {x: 7, y: -5, z: 0}
    second:
      serializedVersion: 2
      m_TileIndex: 44
      m_TileSpriteIndex: 44
      m_TileMatrixIndex: 0
      m_TileColorIndex: 0
      m_TileObjectToInstantiateIndex: 65535
      dummyAlignment: 0
      m_AllTileFlags: 1073741825
  - first: {x: -1, y: -4, z: 0}
    second:
      serializedVersion: 2
      m_TileIndex: 30
      m_TileSpriteIndex: 30
      m_TileMatrixIndex: 0
      m_TileColorIndex: 0
      m_TileObjectToInstantiateIndex: 65535
      dummyAlignment: 0
      m_AllTileFlags: 1073741825
  - first: {x: 0, y: -4, z: 0}
    second:
      serializedVersion: 2
      m_TileIndex: 31
      m_TileSpriteIndex: 31
      m_TileMatrixIndex: 0
      m_TileColorIndex: 0
      m_TileObjectToInstantiateIndex: 65535
      dummyAlignment: 0
      m_AllTileFlags: 1073741825
  - first: {x: 1, y: -4, z: 0}
    second:
      serializedVersion: 2
      m_TileIndex: 32
      m_TileSpriteIndex: 32
      m_TileMatrixIndex: 0
      m_TileColorIndex: 0
      m_TileObjectToInstantiateIndex: 65535
      dummyAlignment: 0
      m_AllTileFlags: 1073741825
  - first: {x: 3, y: -4, z: 0}
    second:
      serializedVersion: 2
      m_TileIndex: 33
      m_TileSpriteIndex: 33
      m_TileMatrixIndex: 0
      m_TileColorIndex: 0
      m_TileObjectToInstantiateIndex: 65535
      dummyAlignment: 0
      m_AllTileFlags: 1073741825
  - first: {x: 5, y: -4, z: 0}
    second:
      serializedVersion: 2
      m_TileIndex: 34
      m_TileSpriteIndex: 34
      m_TileMatrixIndex: 0
      m_TileColorIndex: 0
      m_TileObjectToInstantiateIndex: 65535
      dummyAlignment: 0
      m_AllTileFlags: 1073741825
  - first: {x: 7, y: -4, z: 0}
    second:
      serializedVersion: 2
      m_TileIndex: 35
      m_TileSpriteIndex: 35
      m_TileMatrixIndex: 0
      m_TileColorIndex: 0
      m_TileObjectToInstantiateIndex: 65535
      dummyAlignment: 0
      m_AllTileFlags: 1073741825
  - first: {x: 9, y: -4, z: 0}
    second:
      serializedVersion: 2
      m_TileIndex: 36
      m_TileSpriteIndex: 36
      m_TileMatrixIndex: 0
      m_TileColorIndex: 0
      m_TileObjectToInstantiateIndex: 65535
      dummyAlignment: 0
      m_AllTileFlags: 1073741825
  - first: {x: 10, y: -4, z: 0}
    second:
      serializedVersion: 2
      m_TileIndex: 37
      m_TileSpriteIndex: 37
      m_TileMatrixIndex: 0
      m_TileColorIndex: 0
      m_TileObjectToInstantiateIndex: 65535
      dummyAlignment: 0
      m_AllTileFlags: 1073741825
  - first: {x: 11, y: -4, z: 0}
    second:
      serializedVersion: 2
      m_TileIndex: 38
      m_TileSpriteIndex: 38
      m_TileMatrixIndex: 0
      m_TileColorIndex: 0
      m_TileObjectToInstantiateIndex: 65535
      dummyAlignment: 0
      m_AllTileFlags: 1073741825
  - first: {x: 3, y: -3, z: 0}
    second:
      serializedVersion: 2
      m_TileIndex: 24
      m_TileSpriteIndex: 24
      m_TileMatrixIndex: 0
      m_TileColorIndex: 0
      m_TileObjectToInstantiateIndex: 65535
      dummyAlignment: 0
      m_AllTileFlags: 1073741825
  - first: {x: 5, y: -3, z: 0}
    second:
      serializedVersion: 2
      m_TileIndex: 25
      m_TileSpriteIndex: 25
      m_TileMatrixIndex: 0
      m_TileColorIndex: 0
      m_TileObjectToInstantiateIndex: 65535
      dummyAlignment: 0
      m_AllTileFlags: 1073741825
  - first: {x: 7, y: -3, z: 0}
    second:
      serializedVersion: 2
      m_TileIndex: 26
      m_TileSpriteIndex: 26
      m_TileMatrixIndex: 0
      m_TileColorIndex: 0
      m_TileObjectToInstantiateIndex: 65535
      dummyAlignment: 0
      m_AllTileFlags: 1073741825
  - first: {x: 9, y: -3, z: 0}
    second:
      serializedVersion: 2
      m_TileIndex: 27
      m_TileSpriteIndex: 27
      m_TileMatrixIndex: 0
      m_TileColorIndex: 0
      m_TileObjectToInstantiateIndex: 65535
      dummyAlignment: 0
      m_AllTileFlags: 1073741825
  - first: {x: 10, y: -3, z: 0}
    second:
      serializedVersion: 2
      m_TileIndex: 28
      m_TileSpriteIndex: 28
      m_TileMatrixIndex: 0
      m_TileColorIndex: 0
      m_TileObjectToInstantiateIndex: 65535
      dummyAlignment: 0
      m_AllTileFlags: 1073741825
  - first: {x: 11, y: -3, z: 0}
    second:
      serializedVersion: 2
      m_TileIndex: 29
      m_TileSpriteIndex: 29
      m_TileMatrixIndex: 0
      m_TileColorIndex: 0
      m_TileObjectToInstantiateIndex: 65535
      dummyAlignment: 0
      m_AllTileFlags: 1073741825
  - first: {x: -1, y: -2, z: 0}
    second:
      serializedVersion: 2
      m_TileIndex: 15
      m_TileSpriteIndex: 15
      m_TileMatrixIndex: 0
      m_TileColorIndex: 0
      m_TileObjectToInstantiateIndex: 65535
      dummyAlignment: 0
      m_AllTileFlags: 1073741825
  - first: {x: 0, y: -2, z: 0}
    second:
      serializedVersion: 2
      m_TileIndex: 16
      m_TileSpriteIndex: 16
      m_TileMatrixIndex: 0
      m_TileColorIndex: 0
      m_TileObjectToInstantiateIndex: 65535
      dummyAlignment: 0
      m_AllTileFlags: 1073741825
  - first: {x: 1, y: -2, z: 0}
    second:
      serializedVersion: 2
      m_TileIndex: 17
      m_TileSpriteIndex: 17
      m_TileMatrixIndex: 0
      m_TileColorIndex: 0
      m_TileObjectToInstantiateIndex: 65535
      dummyAlignment: 0
      m_AllTileFlags: 1073741825
  - first: {x: 3, y: -2, z: 0}
    second:
      serializedVersion: 2
      m_TileIndex: 18
      m_TileSpriteIndex: 18
      m_TileMatrixIndex: 0
      m_TileColorIndex: 0
      m_TileObjectToInstantiateIndex: 65535
      dummyAlignment: 0
      m_AllTileFlags: 1073741825
  - first: {x: 5, y: -2, z: 0}
    second:
      serializedVersion: 2
      m_TileIndex: 19
      m_TileSpriteIndex: 19
      m_TileMatrixIndex: 0
      m_TileColorIndex: 0
      m_TileObjectToInstantiateIndex: 65535
      dummyAlignment: 0
      m_AllTileFlags: 1073741825
  - first: {x: 7, y: -2, z: 0}
    second:
      serializedVersion: 2
      m_TileIndex: 20
      m_TileSpriteIndex: 20
      m_TileMatrixIndex: 0
      m_TileColorIndex: 0
      m_TileObjectToInstantiateIndex: 65535
      dummyAlignment: 0
      m_AllTileFlags: 1073741825
  - first: {x: 9, y: -2, z: 0}
    second:
      serializedVersion: 2
      m_TileIndex: 21
      m_TileSpriteIndex: 21
      m_TileMatrixIndex: 0
      m_TileColorIndex: 0
      m_TileObjectToInstantiateIndex: 65535
      dummyAlignment: 0
      m_AllTileFlags: 1073741825
  - first: {x: 10, y: -2, z: 0}
    second:
      serializedVersion: 2
      m_TileIndex: 22
      m_TileSpriteIndex: 22
      m_TileMatrixIndex: 0
      m_TileColorIndex: 0
      m_TileObjectToInstantiateIndex: 65535
      dummyAlignment: 0
      m_AllTileFlags: 1073741825
  - first: {x: 11, y: -2, z: 0}
    second:
      serializedVersion: 2
      m_TileIndex: 23
      m_TileSpriteIndex: 23
      m_TileMatrixIndex: 0
      m_TileColorIndex: 0
      m_TileObjectToInstantiateIndex: 65535
      dummyAlignment: 0
      m_AllTileFlags: 1073741825
  - first: {x: -1, y: -1, z: 0}
    second:
      serializedVersion: 2
      m_TileIndex: 6
      m_TileSpriteIndex: 6
      m_TileMatrixIndex: 0
      m_TileColorIndex: 0
      m_TileObjectToInstantiateIndex: 65535
      dummyAlignment: 0
      m_AllTileFlags: 1073741825
  - first: {x: 0, y: -1, z: 0}
    second:
      serializedVersion: 2
      m_TileIndex: 7
      m_TileSpriteIndex: 7
      m_TileMatrixIndex: 0
      m_TileColorIndex: 0
      m_TileObjectToInstantiateIndex: 65535
      dummyAlignment: 0
      m_AllTileFlags: 1073741825
  - first: {x: 1, y: -1, z: 0}
    second:
      serializedVersion: 2
      m_TileIndex: 8
      m_TileSpriteIndex: 8
      m_TileMatrixIndex: 0
      m_TileColorIndex: 0
      m_TileObjectToInstantiateIndex: 65535
      dummyAlignment: 0
      m_AllTileFlags: 1073741825
  - first: {x: 3, y: -1, z: 0}
    second:
      serializedVersion: 2
      m_TileIndex: 9
      m_TileSpriteIndex: 9
      m_TileMatrixIndex: 0
      m_TileColorIndex: 0
      m_TileObjectToInstantiateIndex: 65535
      dummyAlignment: 0
      m_AllTileFlags: 1073741825
  - first: {x: 5, y: -1, z: 0}
    second:
      serializedVersion: 2
      m_TileIndex: 10
      m_TileSpriteIndex: 10
      m_TileMatrixIndex: 0
      m_TileColorIndex: 0
      m_TileObjectToInstantiateIndex: 65535
      dummyAlignment: 0
      m_AllTileFlags: 1073741825
  - first: {x: 7, y: -1, z: 0}
    second:
      serializedVersion: 2
      m_TileIndex: 11
      m_TileSpriteIndex: 11
      m_TileMatrixIndex: 0
      m_TileColorIndex: 0
      m_TileObjectToInstantiateIndex: 65535
      dummyAlignment: 0
      m_AllTileFlags: 1073741825
  - first: {x: 9, y: -1, z: 0}
    second:
      serializedVersion: 2
      m_TileIndex: 12
      m_TileSpriteIndex: 12
      m_TileMatrixIndex: 0
      m_TileColorIndex: 0
      m_TileObjectToInstantiateIndex: 65535
      dummyAlignment: 0
      m_AllTileFlags: 1073741825
  - first: {x: 10, y: -1, z: 0}
    second:
      serializedVersion: 2
      m_TileIndex: 13
      m_TileSpriteIndex: 13
      m_TileMatrixIndex: 0
      m_TileColorIndex: 0
      m_TileObjectToInstantiateIndex: 65535
      dummyAlignment: 0
      m_AllTileFlags: 1073741825
  - first: {x: 11, y: -1, z: 0}
    second:
      serializedVersion: 2
      m_TileIndex: 14
      m_TileSpriteIndex: 14
      m_TileMatrixIndex: 0
      m_TileColorIndex: 0
      m_TileObjectToInstantiateIndex: 65535
      dummyAlignment: 0
      m_AllTileFlags: 1073741825
  - first: {x: -1, y: 0, z: 0}
    second:
      serializedVersion: 2
      m_TileIndex: 0
      m_TileSpriteIndex: 0
      m_TileMatrixIndex: 0
      m_TileColorIndex: 0
      m_TileObjectToInstantiateIndex: 65535
      dummyAlignment: 0
      m_AllTileFlags: 1073741825
  - first: {x: 0, y: 0, z: 0}
    second:
      serializedVersion: 2
      m_TileIndex: 1
      m_TileSpriteIndex: 1
      m_TileMatrixIndex: 0
      m_TileColorIndex: 0
      m_TileObjectToInstantiateIndex: 65535
      dummyAlignment: 0
      m_AllTileFlags: 1073741825
  - first: {x: 1, y: 0, z: 0}
    second:
      serializedVersion: 2
      m_TileIndex: 2
      m_TileSpriteIndex: 2
      m_TileMatrixIndex: 0
      m_TileColorIndex: 0
      m_TileObjectToInstantiateIndex: 65535
      dummyAlignment: 0
      m_AllTileFlags: 1073741825
  - first: {x: 3, y: 0, z: 0}
    second:
      serializedVersion: 2
      m_TileIndex: 3
      m_TileSpriteIndex: 3
      m_TileMatrixIndex: 0
      m_TileColorIndex: 0
      m_TileObjectToInstantiateIndex: 65535
      dummyAlignment: 0
      m_AllTileFlags: 1073741825
  - first: {x: 4, y: 0, z: 0}
    second:
      serializedVersion: 2
      m_TileIndex: 4
      m_TileSpriteIndex: 4
      m_TileMatrixIndex: 0
      m_TileColorIndex: 0
      m_TileObjectToInstantiateIndex: 65535
      dummyAlignment: 0
      m_AllTileFlags: 1073741825
  - first: {x: 5, y: 0, z: 0}
    second:
      serializedVersion: 2
      m_TileIndex: 5
      m_TileSpriteIndex: 5
      m_TileMatrixIndex: 0
      m_TileColorIndex: 0
      m_TileObjectToInstantiateIndex: 65535
      dummyAlignment: 0
      m_AllTileFlags: 1073741825
  m_AnimatedTiles:
  - first: {x: 3, y: -7, z: 0}
    second:
      m_AnimatedSprites:
      - {fileID: 4085896033110208424, guid: f08bf38b0f02528479661c36e54288ff, type: 3}
      - {fileID: 2448544055920143829, guid: f08bf38b0f02528479661c36e54288ff, type: 3}
      - {fileID: 6795423047063205381, guid: f08bf38b0f02528479661c36e54288ff, type: 3}
      - {fileID: -6112176679791552718, guid: f08bf38b0f02528479661c36e54288ff, type: 3}
      m_AnimationSpeed: 1
      m_AnimationTimeOffset: 0
      m_IsLooping: 1
  - first: {x: 5, y: -7, z: 0}
    second:
      m_AnimatedSprites:
      - {fileID: -7974680058327307951, guid: f08bf38b0f02528479661c36e54288ff, type: 3}
      - {fileID: 3826503638234071929, guid: f08bf38b0f02528479661c36e54288ff, type: 3}
      - {fileID: 7821328450373174937, guid: f08bf38b0f02528479661c36e54288ff, type: 3}
      - {fileID: -9209611309398696889, guid: f08bf38b0f02528479661c36e54288ff, type: 3}
      m_AnimationSpeed: 1
      m_AnimationTimeOffset: 0
      m_IsLooping: 1
  - first: {x: 7, y: -7, z: 0}
    second:
      m_AnimatedSprites:
      - {fileID: 8928665773942334067, guid: f08bf38b0f02528479661c36e54288ff, type: 3}
      - {fileID: 708093838004075250, guid: f08bf38b0f02528479661c36e54288ff, type: 3}
      - {fileID: 4299004643477119933, guid: f08bf38b0f02528479661c36e54288ff, type: 3}
      - {fileID: 2443016539196639674, guid: f08bf38b0f02528479661c36e54288ff, type: 3}
      m_AnimationSpeed: 1
      m_AnimationTimeOffset: 0
      m_IsLooping: 1
  m_TileAssetArray:
  - m_RefCount: 1
    m_Data: {fileID: 11400000, guid: bdf4c3256808c9242a99345056cc24c9, type: 2}
  - m_RefCount: 1
    m_Data: {fileID: 11400000, guid: ead3a3c9a3946934dada32b31e8fd727, type: 2}
  - m_RefCount: 1
    m_Data: {fileID: 11400000, guid: d87395a627802b0448d943d5f40e70d0, type: 2}
  - m_RefCount: 1
    m_Data: {fileID: 11400000, guid: 7fba6f56e1d3eee4e946d236920c4a82, type: 2}
  - m_RefCount: 1
    m_Data: {fileID: 11400000, guid: a8ea73bff25a4ba4d8d87ed37325cf2c, type: 2}
  - m_RefCount: 1
    m_Data: {fileID: 11400000, guid: 7ec65a2979bc19d4e9903819f28fc8b9, type: 2}
  - m_RefCount: 1
    m_Data: {fileID: 11400000, guid: eac077370c77e33429d575489cf34b02, type: 2}
  - m_RefCount: 1
    m_Data: {fileID: 11400000, guid: b463355639319bb4cb6f9dee16420708, type: 2}
  - m_RefCount: 1
    m_Data: {fileID: 11400000, guid: 3c5c33e826055ab45bcdd2216a99b7bf, type: 2}
  - m_RefCount: 1
    m_Data: {fileID: 11400000, guid: 181f59f513296174cb2c19cb054f758a, type: 2}
  - m_RefCount: 1
    m_Data: {fileID: 11400000, guid: bb9bc06f01860fc468992e6e3f9939a7, type: 2}
  - m_RefCount: 1
    m_Data: {fileID: 11400000, guid: b531b00ef156ab64fb861e2fb191b300, type: 2}
  - m_RefCount: 1
    m_Data: {fileID: 11400000, guid: ca42929a72db50d4cbe93d02d1fdaa56, type: 2}
  - m_RefCount: 1
    m_Data: {fileID: 11400000, guid: 37e2198854cb10244a9e0a772de1b172, type: 2}
  - m_RefCount: 1
    m_Data: {fileID: 11400000, guid: 6cd0d081261ea754dab16627244a5161, type: 2}
  - m_RefCount: 1
    m_Data: {fileID: 11400000, guid: 9cdcccc469dc9c5409d0133f464a836b, type: 2}
  - m_RefCount: 1
    m_Data: {fileID: 11400000, guid: da7ba3ab08ed1814bb6ccdc9c8cdf648, type: 2}
  - m_RefCount: 1
    m_Data: {fileID: 11400000, guid: 25d39e6af9b3bf74d8e16db0d1582146, type: 2}
  - m_RefCount: 1
    m_Data: {fileID: 11400000, guid: d5fdeb21061a09d4f9e130a96b72686a, type: 2}
  - m_RefCount: 1
    m_Data: {fileID: 11400000, guid: 31a569a056e8db94198f8dd4d949660e, type: 2}
  - m_RefCount: 1
    m_Data: {fileID: 11400000, guid: cdcfb71a94d23b448945813aa9347a22, type: 2}
  - m_RefCount: 1
    m_Data: {fileID: 11400000, guid: bf9161a19b2e82a4cb8c602b3697d04d, type: 2}
  - m_RefCount: 1
    m_Data: {fileID: 11400000, guid: 27df6d49bbf525747815a1422d386103, type: 2}
  - m_RefCount: 1
    m_Data: {fileID: 11400000, guid: c81fd48acde78d24997a8c36de0615a3, type: 2}
  - m_RefCount: 1
    m_Data: {fileID: 11400000, guid: 831d9033949201243ab43a06db35fc36, type: 2}
  - m_RefCount: 1
    m_Data: {fileID: 11400000, guid: d7e83c1f1d4f2584f970751c12e08e3d, type: 2}
  - m_RefCount: 1
    m_Data: {fileID: 11400000, guid: 4a4b8832cb655d942b2a0279f43bec1b, type: 2}
  - m_RefCount: 1
    m_Data: {fileID: 11400000, guid: 7c3e3d508413ec44f8c53649db8f8172, type: 2}
  - m_RefCount: 1
    m_Data: {fileID: 11400000, guid: 09ec9934fbbed0a49b977a813f610985, type: 2}
  - m_RefCount: 1
    m_Data: {fileID: 11400000, guid: e33657cae319d3f4baa9818a969b5777, type: 2}
  - m_RefCount: 1
    m_Data: {fileID: 11400000, guid: a8dbac5dee53ad944b637586627f6fcc, type: 2}
  - m_RefCount: 1
    m_Data: {fileID: 11400000, guid: 9dd2848b807fabc4b87dbf80e1e61358, type: 2}
  - m_RefCount: 1
    m_Data: {fileID: 11400000, guid: bf925918a4ee41342a97c96ee831d01e, type: 2}
  - m_RefCount: 1
    m_Data: {fileID: 11400000, guid: ab5708b1056067f43aae64ffafe13914, type: 2}
  - m_RefCount: 1
    m_Data: {fileID: 11400000, guid: 4eb073521aae2094db94ba711e88da07, type: 2}
  - m_RefCount: 1
    m_Data: {fileID: 11400000, guid: a7bb86414cea32949a1bc3c8131bc616, type: 2}
  - m_RefCount: 1
    m_Data: {fileID: 11400000, guid: 436a670efacf51b49b966bd6d3c111cd, type: 2}
  - m_RefCount: 1
    m_Data: {fileID: 11400000, guid: e86c6ee8f0139bd4b888590b06487f34, type: 2}
  - m_RefCount: 1
    m_Data: {fileID: 11400000, guid: 931be8bb005047c489cfb8df57023d5b, type: 2}
  - m_RefCount: 1
    m_Data: {fileID: 11400000, guid: 36c3e43893f51134daf7c00257a7b278, type: 2}
  - m_RefCount: 1
    m_Data: {fileID: 11400000, guid: f0f4439df19783245bba04db8d53bafe, type: 2}
  - m_RefCount: 1
    m_Data: {fileID: 11400000, guid: b338b02622856f1408466965bff97c6f, type: 2}
  - m_RefCount: 1
    m_Data: {fileID: 11400000, guid: 90f8e035101f7f542a029fa7ba812fc0, type: 2}
  - m_RefCount: 1
    m_Data: {fileID: 11400000, guid: 13bd819b71491b04f99378d297ffc7db, type: 2}
  - m_RefCount: 1
    m_Data: {fileID: 11400000, guid: 2829519ea77c09c45adc029f7692acb9, type: 2}
  - m_RefCount: 1
    m_Data: {fileID: 11400000, guid: 85c29192426483d47bd3d54c39afe33b, type: 2}
  - m_RefCount: 1
    m_Data: {fileID: 11400000, guid: c07ee0db12e98614695d8fdd22bc523e, type: 2}
  - m_RefCount: 1
    m_Data: {fileID: 11400000, guid: d10c1d9c637b1da42b9f17566eec5e29, type: 2}
  - m_RefCount: 1
    m_Data: {fileID: 11400000, guid: 937c128588a4f124f973264acc21384e, type: 2}
  - m_RefCount: 1
    m_Data: {fileID: 11400000, guid: a7d7deb82662cc34f975f03a912aefbf, type: 2}
  - m_RefCount: 1
    m_Data: {fileID: 11400000, guid: a32b64c3783df894b84bd255af53450b, type: 2}
  - m_RefCount: 1
    m_Data: {fileID: 11400000, guid: 01b2b1082a656834885c2bcef76d5d22, type: 2}
  - m_RefCount: 1
    m_Data: {fileID: 11400000, guid: 46b9b964ca149d0489ad6cb23ff4fd8a, type: 2}
  m_TileSpriteArray:
  - m_RefCount: 1
    m_Data: {fileID: -7150172548916145611, guid: f08bf38b0f02528479661c36e54288ff, type: 3}
  - m_RefCount: 1
    m_Data: {fileID: -7122609988040785846, guid: f08bf38b0f02528479661c36e54288ff, type: 3}
  - m_RefCount: 1
    m_Data: {fileID: 3847276524469960287, guid: f08bf38b0f02528479661c36e54288ff, type: 3}
  - m_RefCount: 1
    m_Data: {fileID: 5277814844268054387, guid: f08bf38b0f02528479661c36e54288ff, type: 3}
  - m_RefCount: 1
    m_Data: {fileID: -2828113674959098425, guid: f08bf38b0f02528479661c36e54288ff, type: 3}
  - m_RefCount: 1
    m_Data: {fileID: -7512032198845894668, guid: f08bf38b0f02528479661c36e54288ff, type: 3}
  - m_RefCount: 1
    m_Data: {fileID: -3857954127306851779, guid: f08bf38b0f02528479661c36e54288ff, type: 3}
  - m_RefCount: 1
    m_Data: {fileID: -5582595900323771630, guid: f08bf38b0f02528479661c36e54288ff, type: 3}
  - m_RefCount: 1
    m_Data: {fileID: 6843314467733065766, guid: f08bf38b0f02528479661c36e54288ff, type: 3}
  - m_RefCount: 1
    m_Data: {fileID: 5660343029225939788, guid: f08bf38b0f02528479661c36e54288ff, type: 3}
  - m_RefCount: 1
    m_Data: {fileID: 8085774618690693527, guid: f08bf38b0f02528479661c36e54288ff, type: 3}
  - m_RefCount: 1
    m_Data: {fileID: 3693067274473499888, guid: f08bf38b0f02528479661c36e54288ff, type: 3}
  - m_RefCount: 1
    m_Data: {fileID: -5934408017627859147, guid: f08bf38b0f02528479661c36e54288ff, type: 3}
  - m_RefCount: 1
    m_Data: {fileID: -5884959436707817165, guid: f08bf38b0f02528479661c36e54288ff, type: 3}
  - m_RefCount: 1
    m_Data: {fileID: 8222371909290815970, guid: f08bf38b0f02528479661c36e54288ff, type: 3}
  - m_RefCount: 1
    m_Data: {fileID: 6877707837498435720, guid: f08bf38b0f02528479661c36e54288ff, type: 3}
  - m_RefCount: 1
    m_Data: {fileID: 4949974807212751265, guid: f08bf38b0f02528479661c36e54288ff, type: 3}
  - m_RefCount: 1
    m_Data: {fileID: -3327850944702782120, guid: f08bf38b0f02528479661c36e54288ff, type: 3}
  - m_RefCount: 1
    m_Data: {fileID: 4085896033110208424, guid: f08bf38b0f02528479661c36e54288ff, type: 3}
  - m_RefCount: 1
    m_Data: {fileID: -7974680058327307951, guid: f08bf38b0f02528479661c36e54288ff, type: 3}
  - m_RefCount: 1
    m_Data: {fileID: 8928665773942334067, guid: f08bf38b0f02528479661c36e54288ff, type: 3}
  - m_RefCount: 1
    m_Data: {fileID: -6846103640958739397, guid: f08bf38b0f02528479661c36e54288ff, type: 3}
  - m_RefCount: 1
    m_Data: {fileID: -5206754869207837876, guid: f08bf38b0f02528479661c36e54288ff, type: 3}
  - m_RefCount: 1
    m_Data: {fileID: 8504651508359300189, guid: f08bf38b0f02528479661c36e54288ff, type: 3}
  - m_RefCount: 1
    m_Data: {fileID: 2448544055920143829, guid: f08bf38b0f02528479661c36e54288ff, type: 3}
  - m_RefCount: 1
    m_Data: {fileID: 3826503638234071929, guid: f08bf38b0f02528479661c36e54288ff, type: 3}
  - m_RefCount: 1
    m_Data: {fileID: 708093838004075250, guid: f08bf38b0f02528479661c36e54288ff, type: 3}
  - m_RefCount: 1
    m_Data: {fileID: 8620058557585500082, guid: f08bf38b0f02528479661c36e54288ff, type: 3}
  - m_RefCount: 1
    m_Data: {fileID: 6527841254944268153, guid: f08bf38b0f02528479661c36e54288ff, type: 3}
  - m_RefCount: 1
    m_Data: {fileID: -5387108170826764179, guid: f08bf38b0f02528479661c36e54288ff, type: 3}
  - m_RefCount: 1
    m_Data: {fileID: -5185627958885767505, guid: f08bf38b0f02528479661c36e54288ff, type: 3}
  - m_RefCount: 1
    m_Data: {fileID: -249541507955452208, guid: f08bf38b0f02528479661c36e54288ff, type: 3}
  - m_RefCount: 1
    m_Data: {fileID: 3219110716321203151, guid: f08bf38b0f02528479661c36e54288ff, type: 3}
  - m_RefCount: 1
    m_Data: {fileID: 6795423047063205381, guid: f08bf38b0f02528479661c36e54288ff, type: 3}
  - m_RefCount: 1
    m_Data: {fileID: 7821328450373174937, guid: f08bf38b0f02528479661c36e54288ff, type: 3}
  - m_RefCount: 1
    m_Data: {fileID: 4299004643477119933, guid: f08bf38b0f02528479661c36e54288ff, type: 3}
  - m_RefCount: 1
    m_Data: {fileID: -8198418443443317568, guid: f08bf38b0f02528479661c36e54288ff, type: 3}
  - m_RefCount: 1
    m_Data: {fileID: -6147125736566286671, guid: f08bf38b0f02528479661c36e54288ff, type: 3}
  - m_RefCount: 1
    m_Data: {fileID: 2221771749728724701, guid: f08bf38b0f02528479661c36e54288ff, type: 3}
  - m_RefCount: 1
    m_Data: {fileID: 537506216025374272, guid: f08bf38b0f02528479661c36e54288ff, type: 3}
  - m_RefCount: 1
    m_Data: {fileID: 8657787369047172189, guid: f08bf38b0f02528479661c36e54288ff, type: 3}
  - m_RefCount: 1
    m_Data: {fileID: -3107548610094582389, guid: f08bf38b0f02528479661c36e54288ff, type: 3}
  - m_RefCount: 2
    m_Data: {fileID: -6112176679791552718, guid: f08bf38b0f02528479661c36e54288ff, type: 3}
  - m_RefCount: 2
    m_Data: {fileID: -9209611309398696889, guid: f08bf38b0f02528479661c36e54288ff, type: 3}
  - m_RefCount: 2
    m_Data: {fileID: 2443016539196639674, guid: f08bf38b0f02528479661c36e54288ff, type: 3}
  - m_RefCount: 1
    m_Data: {fileID: 7118167249002294920, guid: f08bf38b0f02528479661c36e54288ff, type: 3}
  - m_RefCount: 1
    m_Data: {fileID: -570960809168230920, guid: f08bf38b0f02528479661c36e54288ff, type: 3}
  - m_RefCount: 1
    m_Data: {fileID: 6534528432305414660, guid: f08bf38b0f02528479661c36e54288ff, type: 3}
  - m_RefCount: 1
    m_Data: {fileID: 7661643746274209755, guid: f08bf38b0f02528479661c36e54288ff, type: 3}
  - m_RefCount: 1
    m_Data: {fileID: 4506374813296167035, guid: f08bf38b0f02528479661c36e54288ff, type: 3}
  m_TileMatrixArray:
  - m_RefCount: 53
    m_Data:
      e00: 1
      e01: 0
      e02: 0
      e03: 0
      e10: 0
      e11: 1
      e12: 0
      e13: 0
      e20: 0
      e21: 0
      e22: 1
      e23: 0
      e30: 0
      e31: 0
      e32: 0
      e33: 1
  m_TileColorArray:
  - m_RefCount: 53
    m_Data: {r: 1, g: 1, b: 1, a: 1}
  m_TileObjectToInstantiateArray: []
  m_AnimationFrameRate: 1
  m_Color: {r: 1, g: 1, b: 1, a: 1}
  m_Origin: {x: -1, y: -7, z: 0}
  m_Size: {x: 13, y: 8, z: 1}
  m_TileAnchor: {x: 0.5, y: 0.5, z: 0}
  m_TileOrientation: 0
  m_TileOrientationMatrix:
    e00: 1
    e01: 0
    e02: 0
    e03: 0
    e10: 0
    e11: 1
    e12: 0
    e13: 0
    e20: 0
    e21: 0
    e22: 1
    e23: 0
    e30: 0
    e31: 0
    e32: 0
    e33: 1
--- !u!483693784 &5576551783210133043
TilemapRenderer:
  m_ObjectHideFlags: 0
  m_CorrespondingSourceObject: {fileID: 0}
  m_PrefabInstance: {fileID: 0}
  m_PrefabAsset: {fileID: 0}
  m_GameObject: {fileID: 4782072450233878106}
  m_Enabled: 1
  m_CastShadows: 0
  m_ReceiveShadows: 0
  m_DynamicOccludee: 0
  m_MotionVectors: 1
  m_LightProbeUsage: 0
  m_ReflectionProbeUsage: 0
  m_RayTracingMode: 0
  m_RayTraceProcedural: 0
  m_RenderingLayerMask: 1
  m_RendererPriority: 0
  m_Materials:
  - {fileID: 10754, guid: 0000000000000000f000000000000000, type: 0}
  m_StaticBatchInfo:
    firstSubMesh: 0
    subMeshCount: 0
  m_StaticBatchRoot: {fileID: 0}
  m_ProbeAnchor: {fileID: 0}
  m_LightProbeVolumeOverride: {fileID: 0}
  m_ScaleInLightmap: 1
  m_ReceiveGI: 1
  m_PreserveUVs: 0
  m_IgnoreNormalsForChartDetection: 0
  m_ImportantGI: 0
  m_StitchLightmapSeams: 1
  m_SelectedEditorRenderState: 0
  m_MinimumChartSize: 4
  m_AutoUVMaxDistance: 0.5
  m_AutoUVMaxAngle: 89
  m_LightmapParameters: {fileID: 0}
  m_SortingLayerID: 0
  m_SortingLayer: 0
  m_SortingOrder: 0
  m_ChunkSize: {x: 32, y: 32, z: 32}
  m_ChunkCullingBounds: {x: 0, y: 0, z: 0}
  m_MaxChunkCount: 16
  m_MaxFrameAge: 16
  m_SortOrder: 0
  m_Mode: 0
  m_DetectChunkCullingBounds: 0
  m_MaskInteraction: 0
--- !u!1 &7848107924129123174
GameObject:
  m_ObjectHideFlags: 0
  m_CorrespondingSourceObject: {fileID: 0}
  m_PrefabInstance: {fileID: 0}
  m_PrefabAsset: {fileID: 0}
  serializedVersion: 6
  m_Component:
  - component: {fileID: 7654808038225235394}
  - component: {fileID: 3083449631802940702}
  m_Layer: 31
  m_Name: CacePalette
  m_TagString: Untagged
  m_Icon: {fileID: 0}
  m_NavMeshLayer: 0
  m_StaticEditorFlags: 0
  m_IsActive: 1
--- !u!4 &7654808038225235394
Transform:
  m_ObjectHideFlags: 0
  m_CorrespondingSourceObject: {fileID: 0}
  m_PrefabInstance: {fileID: 0}
  m_PrefabAsset: {fileID: 0}
  m_GameObject: {fileID: 7848107924129123174}
  m_LocalRotation: {x: 0, y: 0, z: 0, w: 1}
  m_LocalPosition: {x: 0, y: 0, z: 0}
  m_LocalScale: {x: 1, y: 1, z: 1}
  m_Children:
  - {fileID: 7494899930634850165}
  m_Father: {fileID: 0}
  m_RootOrder: 0
  m_LocalEulerAnglesHint: {x: 0, y: 0, z: 0}
--- !u!156049354 &3083449631802940702
Grid:
  m_ObjectHideFlags: 0
  m_CorrespondingSourceObject: {fileID: 0}
  m_PrefabInstance: {fileID: 0}
  m_PrefabAsset: {fileID: 0}
  m_GameObject: {fileID: 7848107924129123174}
  m_Enabled: 1
  m_CellSize: {x: 1, y: 1, z: 0}
  m_CellGap: {x: 0, y: 0, z: 0}
  m_CellLayout: 0
  m_CellSwizzle: 0
--- !u!114 &6177783110879962170
MonoBehaviour:
  m_ObjectHideFlags: 0
  m_CorrespondingSourceObject: {fileID: 0}
  m_PrefabInstance: {fileID: 0}
  m_PrefabAsset: {fileID: 0}
  m_GameObject: {fileID: 0}
  m_Enabled: 1
  m_EditorHideFlags: 0
  m_Script: {fileID: 12395, guid: 0000000000000000e000000000000000, type: 0}
  m_Name: Palette Settings
  m_EditorClassIdentifier: 
  cellSizing: 0
  m_TransparencySortMode: 0
  m_TransparencySortAxis: {x: 0, y: 0, z: 1}
